{"matched":{"subject_id":"5139196938264400928","title":"The Boys","year":2019},"candidates":[{"subject_id":"5139196938264400928","title":"The Boys","year":2019,"has_resource":true},{"subject_id":"4830273202448466064","title":"The Boys [Hindi]","year":2024,"has_resource":true},{"subject_id":"7712520437901000816","title":"The Boys [Hindi]","year":1993,"has_resource":true},{"subject_id":"1068099660755126496","title":"The Boys","year":1993,"has_resource":true},{"subject_id":"6324549199757464608","title":"The Boys Presents: Diabolical","year":2022,"has_resource":true},{"subject_id":"8942427252919256920","title":"The Bangkok Boy","year":2025,"has_resource":true},{"subject_id":"267563007482495928","title":"From","year":2022,"has_resource":true},{"subject_id":"4509167053890289768","title":"The Hardy Boys","year":2020,"has_resource":true},{"subject_id":"4910054663271112712","title":"Flower Boy","year":2026,"has_resource":true},{"subject_id":"1068572270903418008","title":"The Boy Next World: My Destiny","year":2026,"has_resource":true},{"subject_id":"6379689828686482848","title":"Escort Boys","year":2023,"has_resource":true},{"subject_id":"1265666935526752664","title":"Blue Boys","year":2024,"has_resource":true},{"subject_id":"5161063907406005328","title":"Nowhere Boys","year":2013,"has_resource":true},{"subject_id":"4688497493259207232","title":"Good Boy","year":2025,"has_resource":true},{"subject_id":"4945446201496848184","title":"Boys Planet","year":2023,"has_resource":true},{"subject_id":"4685414847591450088","title":"The Boys Presents: Diabolical [Hindi]","year":2022,"has_resource":true},{"subject_id":"8926984199790283392","title":"The Boy Next Door","year":2017,"has_resource":true},{"subject_id":"4121866769508225816","title":"Toy Boy","year":2019,"has_resource":true},{"subject_id":"4502462533705630752","title":"Top Boy [Hindi]","year":2011,"has_resource":true},{"subject_id":"2449209778300666432","title":"Good Boy [Hindi]","year":2025,"has_resource":true}],"summary":{"total_files":70,"filtered_files":12,"seasons_present":[1,2,3,4,5],"episodes_in_filter":[1,2,3,4,5,6,7,8],"files_with_no_resolution":0},"pagination_trace":[{"pass":"best","page":1,"items":20,"has_more":true,"next_page":2,"total_count":33,"per_page":20},{"pass":"best","page":2,"items":13,"has_more":false,"next_page":3,"total_count":33,"per_page":20},{"pass":"unspecified","page":1,"items":20,"has_more":true,"next_page":2,"total_count":38,"per_page":20},{"pass":"unspecified","page":2,"items":18,"has_more":false,"next_page":3,"total_count":38,"per_page":20}],"files":[{"season":4,"episode":1,"resolution":360,"size_bytes":161342619,"url":"https://bcdn.hakunaymatata.com/resource/h265/02c6b7c1faf85ba118f1630c396d5767.mp4?sign=464a5a36dc1bb27a0e0d767804b94ece&t=1777761621"},{"season":4,"episode":2,"resolution":360,"size_bytes":152475566,"url":"https://bcdn.hakunaymatata.com/resource/h265/26ec0a194029ea284489cb56b9625dcf.mp4?sign=ac7071283a2c530021c372bb78c90fbb&t=1777759918"},{"season":4,"episode":3,"resolution":360,"size_bytes":149929896,"url":"https://bcdn.hakunaymatata.com/resource/h265/e7b6d7cf59209f31b47bdde18935d8d0.mp4?sign=80f775f4dc00a88e5eba4e72f4e6483e&t=1777760585"},{"season":4,"episode":4,"resolution":1080,"size_bytes":151133410,"url":"https://bcdn.hakunaymatata.com/resource/h265/238517cc3309eca1699d043e96a41ff7.mp4?sign=18656089664cce2b0db46078f2ce24ef&t=1777759327"},{"season":4,"episode":4,"resolution":360,"size_bytes":101338902,"url":"https://bcdn.hakunaymatata.com/resource/h265/2a9383f30db55f5ecb493ab8be04e08f.mp4?sign=0f447d01e789e9004d930f3500479449&t=1777758402"},{"season":4,"episode":5,"resolution":1080,"size_bytes":304297154,"url":"https://bcdn.hakunaymatata.com/resource/h265/5a89589f6af230e116e405403456cb72.mp4?sign=37098d19cfd2489efc10081ecd7eddb9&t=1777762211"},{"season":4,"episode":5,"resolution":360,"size_bytes":136516349,"url":"https://bcdn.hakunaymatata.com/resource/h265/a1ad9dec27095f3a36e8101c89e3f703.mp4?sign=b601344aa1fb8b52339015c9ef036e66&t=1777760801"},{"season":4,"episode":6,"resolution":1080,"size_bytes":753841297,"url":"https://bcdn.hakunaymatata.com/tran-audio/20250603/5932ba772c6a1752681f34d7dcbb2fe5.mp4?sign=59d39e05e5e0ae5d8b36fb992b8c9acb&t=1777761765"},{"season":4,"episode":6,"resolution":360,"size_bytes":228834725,"url":"https://bcdn.hakunaymatata.com/tran-audio/20250523/new-ecc75a19911c563bf3b09209d7a62428.mp4?sign=24b5d5c691a2c0c8a546c865347e2e20&t=1777761033"},{"season":4,"episode":7,"resolution":360,"size_bytes":90621619,"url":"https://bcdn.hakunaymatata.com/resource/h265/1813b38387e41f3e9186edf466eb074e.mp4?sign=68f0977b39fe45b9b85282e0dd2cfebd&t=1777759741"},{"season":4,"episode":8,"resolution":1080,"size_bytes":302366681,"url":"https://bcdn.hakunaymatata.com/resource/h265/4ffd207df0ca16b2ee6334e444ac912a.mp4?sign=f802ffaa75c1414a8e7777248f0f14ee&t=1777761460"},{"season":4,"episode":8,"resolution":360,"size_bytes":97795973,"url":"https://bcdn.hakunaymatata.com/resource/h265/af0d6ea59a38e3a276c0ec3d4729b682.mp4?sign=2dc3954abe79b54c4f522e84c08279ed&t=1777759138"}]}