{"subject_id":"5139196938264400928","season":4,"episode":1,"resource_attempts":[{"label":"se+ep","params":{"subjectId":"5139196938264400928","se":4,"ep":1,"resolution":0,"page":1,"perPage":20},"list_count":20,"pager":{"hasMore":true,"nextPage":"2","page":"1","perPage":20,"totalCount":38},"matching_episode_count":0,"sample_files":[{"se":1,"ep":1,"resolution":360,"size":"120968295"},{"se":1,"ep":2,"resolution":360,"size":"116218353"},{"se":1,"ep":3,"resolution":360,"size":"106767966"},{"se":1,"ep":4,"resolution":360,"size":"111534438"},{"se":1,"ep":5,"resolution":360,"size":"115132043"}]},{"label":"se+ep+all=1","params":{"subjectId":"5139196938264400928","se":4,"ep":1,"all":1,"resolution":0,"page":1,"perPage":20},"list_count":20,"pager":{"hasMore":true,"nextPage":"2","page":"1","perPage":20,"totalCount":38},"matching_episode_count":0,"sample_files":[{"se":1,"ep":1,"resolution":360,"size":"120968295"},{"se":1,"ep":2,"resolution":360,"size":"116218353"},{"se":1,"ep":3,"resolution":360,"size":"106767966"},{"se":1,"ep":4,"resolution":360,"size":"111534438"},{"se":1,"ep":5,"resolution":360,"size":"115132043"}]},{"label":"se only","params":{"subjectId":"5139196938264400928","se":4,"resolution":0,"page":1,"perPage":20},"list_count":20,"pager":{"hasMore":true,"nextPage":"2","page":"1","perPage":20,"totalCount":38},"matching_episode_count":0,"sample_files":[{"se":1,"ep":1,"resolution":360,"size":"120968295"},{"se":1,"ep":2,"resolution":360,"size":"116218353"},{"se":1,"ep":3,"resolution":360,"size":"106767966"},{"se":1,"ep":4,"resolution":360,"size":"111534438"},{"se":1,"ep":5,"resolution":360,"size":"115132043"}]},{"label":"epFrom/epTo","params":{"subjectId":"5139196938264400928","epFrom":1,"epTo":1,"resolution":0,"page":1,"perPage":20},"list_count":20,"pager":{"hasMore":true,"nextPage":"2","page":"1","perPage":20,"totalCount":38},"matching_episode_count":0,"sample_files":[{"se":1,"ep":1,"resolution":360,"size":"120968295"},{"se":1,"ep":2,"resolution":360,"size":"116218353"},{"se":1,"ep":3,"resolution":360,"size":"106767966"},{"se":1,"ep":4,"resolution":360,"size":"111534438"},{"se":1,"ep":5,"resolution":360,"size":"115132043"}]},{"label":"all=1 only","params":{"subjectId":"5139196938264400928","all":1,"resolution":0,"page":1,"perPage":20},"list_count":20,"pager":{"hasMore":true,"nextPage":"2","page":"1","perPage":20,"totalCount":38},"matching_episode_count":0,"sample_files":[{"se":1,"ep":1,"resolution":360,"size":"120968295"},{"se":1,"ep":2,"resolution":360,"size":"116218353"},{"se":1,"ep":3,"resolution":360,"size":"106767966"},{"se":1,"ep":4,"resolution":360,"size":"111534438"},{"se":1,"ep":5,"resolution":360,"size":"115132043"}]}],"play_info_attempts":[{"label":"play-info se+ep","params":{"subjectId":"5139196938264400928","se":4,"ep":1},"raw":{"streams":[{"format":"DASH","id":"3226395619413689328","url":"https://sacdn.hakunaymatata.com/dash/5139196938264400928_4_1_720_h265/index.mpd","resolutions":"720,480","size":"478974561","duration":3906,"codecName":"hevc","signCookie":"CloudFront-Policy=eyJTdGF0ZW1lbnQiOlt7IlJlc291cmNlIjoiaHR0cHM6Ly9zYWNkbi5oYWt1bmF5bWF0YXRhLmNvbS9kYXNoLzUxMzkxOTY5MzgyNjQ0MDA5MjhfNF8xXzcyMF9oMjY1LyoiLCJDb25kaXRpb24iOnsiRGF0ZUxlc3NUaGFuIjp7IkFXUzpFcG9jaFRpbWUiOjE3NzgzNDIzODV9fX1dfQ__;CloudFront-Signature=mSIbw0ZCen-9UZDcHIFm~WjkZhbTYVCfY0F-XtvtbFapDE2Wab4d6CWLnfH4vZGhsDrbkJbxgnWz6FnjnZ62wnoDpVtAGLLJTZ5MzUDQaXD6pzoMNBCmn4fBCAhUFLTS7uE7zQkYqz-j54FM03rATxqPNIWYZtfiNOo71SXA69hCVS9n4Ykr3Do2WeroNiH~MONnLESOV7vZSAev25ECHFEebPgR72euh2flTKRkUY3Hg5FRBBLzHLfx40QEzwIVs8DLdo9NMJUZJANrfGwJNZ~XcVvCJHjsm5PmbAFOdYDXGZZhuZfEoS2EKsGzF69k2ADQFHj1qaUBItYf9OYs6Q__;CloudFront-Key-Pair-Id=KMHN1LQ1HEUPL;","idType":""}],"title":"Department of Dirty Tricks"}},{"label":"play-info no-args","params":{"subjectId":"5139196938264400928"},"raw":{"streams":[],"title":""}}]}